Example
…
Resampling

## Resample estimation of model performance
(res <- resample(fo, data = iris, model = GBMModel, control = CVControl))
#> --- Resample object ------------------------------------------------------------
#> 
#> Model: GBMModel
#> Sampling variables:
#> # A tibble: 150 x 2
#>    Case  Stratification$`(strata)`
#>    <chr> <fct>                    
#>  1 1     setosa                   
#>  2 2     setosa                   
#>  3 3     setosa                   
#>  4 4     setosa                   
#>  5 5     setosa                   
#>  6 6     setosa                   
#>  7 7     setosa                   
#>  8 8     setosa                   
#>  9 9     setosa                   
#> 10 10    setosa                   
#> # ... with 140 more rows
…
