Example
…
#> Variable importance: TRUE
#> 
#> Parameters:
#> List of 5
#>  $ n.trees          : num 200
#>  $ interaction.depth: int 5
#>  $ n.minobsinnode   : num 10
#>  $ shrinkage        : num 0.1
#>  $ bag.fraction     : num 0.5
#> 
#> TrainStep1 :
#> Object of class "TrainStep"
#> 
#> Grid (selected = 24):
#> # A tibble: 25 x 1
#>    Model$n.trees $interaction.depth
#>            <dbl>              <int>
#>  1            50                  1
#>  2           100                  1
#>  3           150                  1
#>  4           200                  1
#>  5           250                  1
#>  6            50                  2
#>  7           100                  2
#>  8           150                  2
#>  9           200                  2
#> 10           250                  2
#> # ... with 15 more rows
…
