Using MachineShop
…
Resampling is performed by calling the resample()
function with a variable specification, model, and control structure.
Like the fit()
function, variables may be specified in terms of a traditional formula,
design matrix, model frame, or recipe.

## Resample estimation for survival means and probabilities
(res_means <- resample(surv_fo, data = surv_train, model = GBMModel,
                       control = surv_means_control))
#> --- Resample object --------------------------------------------------------------------------------
#> 
#> Model: GBMModel
#> Sampling variables:
#> # A tibble: 136 × 2
#>    Case  Stratification$`(strata)`
#>    <chr> <fct>                    
#>  1 159   0:(2.56e+03,3.45e+03]    
#>  2 179   0:(3.45e+03,5.56e+03]    
#>  3 14    1:[99,1.05e+03]          
#>  4 195   0:(3.45e+03,5.56e+03]    
#>  5 170   0:(2.56e+03,3.45e+03]    
#>  6 50    0:[1.5e+03,1.92e+03]     
#>  7 118   1:(1.05e+03,3.18e+03]    
#>  8 43    1:(1.05e+03,3.18e+03]    
#>  9 203   0:(3.45e+03,5.56e+03]    
#> 10 199   0:(3.45e+03,5.56e+03]    
#> # … with 126 more rows
#> 
#> === CVControl object ===
#> 
#> Label: K-Fold Cross-Validation
#> Folds: 5
#> Repeats: 3

(res_probs <- resample(surv_fo, data = surv_train, model = GBMModel,
                       control = surv_probs_control))
#> --- Resample object --------------------------------------------------------------------------------
#> 
#> Model: GBMModel
#> Sampling variables:
#> # A tibble: 136 × 2
#>    Case  Stratification$`(strata)`
#>    <chr> <fct>                    
#>  1 159   0:(2.56e+03,3.45e+03]    
#>  2 179   0:(3.45e+03,5.56e+03]    
#>  3 14    1:[99,1.05e+03]          
#>  4 195   0:(3.45e+03,5.56e+03]    
#>  5 170   0:(2.56e+03,3.45e+03]    
#>  6 50    0:[1.5e+03,1.92e+03]     
#>  7 118   1:(1.05e+03,3.18e+03]    
#>  8 43    1:(1.05e+03,3.18e+03]    
#>  9 203   0:(3.45e+03,5.56e+03]    
#> 10 199   0:(3.45e+03,5.56e+03]    
#> # … with 126 more rows
…
## Resample estimation
res1 <- resample(surv_fo, data = surv_train, model = GBMModel(n.trees = 25),
                 control = surv_means_control)
res2 <- resample(surv_fo, data = surv_train, model = GBMModel(n.trees = 50),
                 control = surv_means_control)
res3 <- resample(surv_fo, data = surv_train, model = GBMModel(n.trees = 100),
                 control = surv_means_control)

## Combine resample output for comparison
(res <- c(GBM1 = res1, GBM2 = res2, GBM3 = res3))
#> --- Resample object --------------------------------------------------------------------------------
#> 
#> Models: GBM1, GBM2, GBM3
#> Sampling variables:
#> # A tibble: 136 × 2
#>    Case  Stratification$`(strata)`
#>    <chr> <fct>                    
#>  1 159   0:(2.56e+03,3.45e+03]    
#>  2 179   0:(3.45e+03,5.56e+03]    
#>  3 14    1:[99,1.05e+03]          
#>  4 195   0:(3.45e+03,5.56e+03]    
#>  5 170   0:(2.56e+03,3.45e+03]    
#>  6 50    0:[1.5e+03,1.92e+03]     
#>  7 118   1:(1.05e+03,3.18e+03]    
#>  8 43    1:(1.05e+03,3.18e+03]    
#>  9 203   0:(3.45e+03,5.56e+03]    
#> 10 199   0:(3.45e+03,5.56e+03]    
#> # … with 126 more rows
…
#> ID: input.ICgC
#> Outcome: y
#> Predictors: sex, age, year, thickness, ulcer
#> Untrained step IDs: step_center = center_AisIH, step_scale = scale_yD5ZK, step_pca = PCA
#> Number of observations: 136
#> 
#> === MLModel object ===
#> 
#> Model name: GBMModel
#> Label: Generalized Boosted Regression
#> ID: model.ajOO
#> 
#> === Grid ===
#> 
#> # A tibble: 27 × 2
#>    input.ICgC$PCA$num_comp model.ajOO$n.trees $interaction.depth
#>                      <int>              <int>              <int>
#>  1                       1                 50                  1
#>  2                       1                 50                  2
#>  3                       1                 50                  3
#>  4                       1                100                  1
#>  5                       1                100                  2
#>  6                       1                100                  3
#>  7                       1                150                  1
#>  8                       1                150                  2
#>  9                       1                150                  3
#> 10                       2                 50                  1
#> # … with 17 more rows
…
#> 
#> Parameters:
#> List of 5
#>  $ n.trees          : num 150
#>  $ interaction.depth: num 3
#>  $ n.minobsinnode   : num 10
#>  $ shrinkage        : num 0.1
#>  $ bag.fraction     : num 0.5
#> 
#> === $TrainingStep1 =================================================================================
#> === TrainingStep object ===
#> 
#> Optimization method: Bayesian Optimization
#> ModelSpecification log:
#> # A tibble: 12 × 5
#>    name         epoch selected params$input.ICgC$PCA$num_comp $model.a…¹ metri…²
#>    <chr>        <int> <lgl>                             <dbl>      <dbl>   <dbl>
#>  1 ModelSpec.1      0 FALSE                                 2        108   0.721
#>  2 ModelSpec.2      0 FALSE                                 1        117   0.728
#>  3 ModelSpec.3      0 FALSE                                 3         70   0.742
#>  4 ModelSpec.4      0 FALSE                                 3        138   0.742
#>  5 ModelSpec.5      0 FALSE                                 2         80   0.721
#>  6 ModelSpec.6      1 FALSE                                 3        107   0.743
#>  7 ModelSpec.7      2 FALSE                                 3        108   0.741
#>  8 ModelSpec.8      3 FALSE                                 3         89   0.742
#>  9 ModelSpec.9      4 FALSE                                 3        100   0.742
#> 10 ModelSpec.10     5 FALSE                                 3         80   0.743
#> # … with 2 more rows, 1 more variable:
#> #   params$model.ajOO$interaction.depth <dbl>, and abbreviated variable names
#> #   ¹​$model.ajOO$n.trees, ²​metrics$`C-Index`
…
